test/waves/RSLatch.vcd
$version Generated by Flote v0.1.0 - Gambiarra $end
$date 2025-04-19 14:35:20 $end
$timescale 1ns $end

$comment Hello from Theresina. $end

$scope module RSLatch $end
	$var wire 1 set set $end
	$var wire 1 rst rst $end
	$var wire 1 q q $end
	$var wire 1 not_q not_q $end
$upscope $end

$enddefinitions $end

#0

0set
1rst
0q
1not_q

#1

0set
0rst
0q
1not_q

#2

1set
0rst
1q
0not_q

#3

0set
0rst
1q
0not_q

#4

1set
0rst
1q
0not_q

#5

0set
0rst
1q
0not_q

#6

0set
1rst
0q
1not_q

#7

0set
0rst
0q
1not_q

#8

1set
0rst
1q
0not_q

#9

0set
0rst
1q
0not_q

#10

0set
1rst
0q
1not_q

#11

0set
0rst
0q
1not_q

