tests/RSLatch.vcd
$timescale 1 ns $end

$scope module RSLatch $end
$var wire 1 s s $end
$var wire 1 r r $end
$var wire 1 q q $end
$var wire 1 not_q not_q $end
$var wire 1 i1 i1 $end
$var wire 1 i2 i2 $end

$upscope $end

$enddefinitions $end

#0

b0 s
b1 r
b0 q
b1 not_q
b0 i1
b1 i2

#1

b0 s
b0 r
b0 q
b1 not_q
b0 i1
b1 i2

#2

b1 s
b0 r
b1 q
b0 not_q
b1 i1
b0 i2

#3

b0 s
b0 r
b1 q
b0 not_q
b1 i1
b0 i2

#4

b1 s
b0 r
b1 q
b0 not_q
b1 i1
b0 i2

#5

b0 s
b0 r
b1 q
b0 not_q
b1 i1
b0 i2

#6

b0 s
b1 r
b0 q
b1 not_q
b0 i1
b1 i2

#7

b0 s
b0 r
b0 q
b1 not_q
b0 i1
b1 i2

#8

b0 s
b0 r
b0 q
b1 not_q
b0 i1
b1 i2

