tests/waves/RsLatch (fw).vcd
$version Generated by Flote v0.1.1 - Gambiarra $end
$date 2025-06-14 19:04:49 $end
$timescale 1ns $end

$comment Hello from Theresina. $end

$scope module latch $end
	$var wire 1 set set $end
	$var wire 1 rst rst $end
	$var wire 1 q q $end
	$var wire 1 not_q not_q $end
	$var wire 1 i1 i1 $end
	$var wire 1 i2 i2 $end
$upscope $end

$enddefinitions $end

#0

0set
1rst
0q
1not_q
1i1
0i2

#1

0set
0rst
0q
1not_q
1i1
0i2

#2

1set
0rst
1q
0not_q
0i1
1i2

#3

0set
0rst
1q
0not_q
0i1
1i2

#4

1set
0rst
1q
0not_q
0i1
1i2

#5

0set
0rst
1q
0not_q
0i1
1i2

#6

0set
1rst
0q
1not_q
1i1
0i2

#7

0set
0rst
0q
1not_q
1i1
0i2

